module zsny.dev/m/discorder

go 1.17

require (
	github.com/bwmarrin/discordgo v0.25.0
	github.com/godror/godror v0.33.2
)

require (
	github.com/go-logfmt/logfmt v0.5.1 // indirect
	github.com/go-logr/logr v1.2.3 // indirect
	github.com/godror/knownpb v0.1.0 // indirect
	github.com/gorilla/websocket v1.4.2 // indirect
	golang.org/x/crypto v0.0.0-20210421170649-83a5a9bb288b // indirect
	golang.org/x/sys v0.0.0-20201119102817-f84b799fce68 // indirect
	google.golang.org/protobuf v1.27.1 // indirect
)
